PCBNEW-LibModule-V1  2018-11-21 19:27:44
# encoding utf-8
Units mm
$INDEX
67068-7041
$EndINDEX
$MODULE 67068-7041
Po 0 0 0 15 5bf5b1b0 00000000 ~~
Li 67068-7041
Cd 67068-7041
Kw Connector
Sc 0
At STD
AR 
Op 0 0 0
T0 -0.39483 2.91581 1.27 1.27 0 0.254 N V 21 N "J**"
T1 -0.39483 2.91581 1.27 1.27 0 0.254 N I 21 N "67068-7041"
DS -6 -6.72 6 -6.72 0.2 24
DS 6 -6.72 6 10.28 0.2 24
DS 6 10.28 -6 10.28 0.2 24
DS -6 10.28 -6 -6.72 0.2 24
DS -6 -6.72 6 -6.72 0.2 21
DS 6 10.28 -6 10.28 0.2 21
DS -6 10.28 -6 2 0.2 21
DS -6 -6.72 -6 -2 0.2 21
DS 6 10.28 6 2 0.2 21
DS 6 -6.72 6 -2 0.2 21
DC 1.355 -7.478 1.288 -7.478 0.254 21
$PAD
Po 1.25 -4.71
Sh "1" C 1.5 1.5 0 0 900
Dr 1 0 0
At STD N 00E0FFFF
Ne 0 ""
$EndPAD
$PAD
Po -1.25 -4.71
Sh "2" C 1.5 1.5 0 0 900
Dr 1 0 0
At STD N 00E0FFFF
Ne 0 ""
$EndPAD
$PAD
Po -1.25 -2.71
Sh "3" C 1.5 1.5 0 0 900
Dr 1 0 0
At STD N 00E0FFFF
Ne 0 ""
$EndPAD
$PAD
Po 1.25 -2.71
Sh "4" C 1.5 1.5 0 0 900
Dr 1 0 0
At STD N 00E0FFFF
Ne 0 ""
$EndPAD
$PAD
Po -6.02 0
Sh "5" C 3.4 3.4 0 0 900
Dr 2.38 0 0
At STD N 00E0FFFF
Ne 0 ""
$EndPAD
$PAD
Po 6.02 0
Sh "6" C 3.4 3.4 0 0 900
Dr 2.38 0 0
At STD N 00E0FFFF
Ne 0 ""
$EndPAD
$EndMODULE 67068-7041
$EndLIBRARY
